{
    "created": "2020-01-16T18:02:51.180736Z",
    "digest": "071a237ad4ba0a7c2caac01e613e9fd46cad49427c244697dd71f9f7d859d581",
    "id": "ta1-perspecta-svm_uu7_pima_diabetes_MIN_METADATA",
    "inputs": [
        {
            "name": "inputs"
        }
    ],
    "outputs": [
        {
            "data": "steps.3.produce",
            "name": "output predictions"
        }
    ],
    "schema": "https://metadata.datadrivendiscovery.org/schemas/v0/pipeline.json",
    "steps": [
        {
            "arguments": {
                "inputs": {
                    "data": "inputs.0",
                    "type": "CONTAINER"
                }
            },
            "outputs": [
                {
                    "id": "produce"
                }
            ],
            "primitive": {
                "digest": "721acdfdf36de9b51a2100a2f4056904d2641c49e5812515fe565adecdf076d1",
                "id": "4b42ce1e-9b98-4a25-b68e-fad13311eb65",
                "name": "Extract a DataFrame from a Dataset",
                "python_path": "d3m.primitives.data_transformation.dataset_to_dataframe.Common",
                "version": "0.3.0"
            },
            "type": "PRIMITIVE"
        },
        {
            "arguments": {
                "inputs": {
                    "data": "steps.0.produce",
                    "type": "CONTAINER"
                }
            },
            "hyperparams": {
                "detect_semantic_types": {
                    "data": [
                        "http://schema.org/Boolean",
                        "https://metadata.datadrivendiscovery.org/types/CategoricalData",
                        "http://schema.org/Integer",
                        "http://schema.org/Float",
                        "http://schema.org/Text",
                        "https://metadata.datadrivendiscovery.org/types/Attribute",
                        "https://metadata.datadrivendiscovery.org/types/TrueTarget",
                        "https://metadata.datadrivendiscovery.org/types/PrimaryKey"
                    ],
                    "type": "VALUE"
                }
            },
            "outputs": [
                {
                    "id": "produce"
                }
            ],
            "primitive": {
                "digest": "c5dd2bbc5f362690233c9b74f1ce78fa2d0b6a4b226001894cc923424403463e",
                "id": "e193afa1-b45e-4d29-918f-5bb1fa3b88a7",
                "name": "Determine missing semantic types for columns automatically",
                "python_path": "d3m.primitives.schema_discovery.profiler.Common",
                "version": "0.2.0"
            },
            "type": "PRIMITIVE"
        },
        {
            "arguments": {
                "inputs": {
                    "data": "steps.1.produce",
                    "type": "CONTAINER"
                }
            },
            "hyperparams": {
                "C_gridsearch": {
                    "data": {
                        "encoding": "pickle",
                        "value": "gANHwBAAAAAAAABHQDAAAAAAAABHQATMzMzMzM2HcQAu"
                    },
                    "type": "VALUE"
                },
                "gamma_gridsearch": {
                    "data": {
                        "encoding": "pickle",
                        "value": "gANHwBAAAAAAAABHQDAAAAAAAABHQATMzMzMzM2HcQAu"
                    },
                    "type": "VALUE"
                }
            },
            "outputs": [
                {
                    "id": "produce"
                }
            ],
            "primitive": {
                "digest": "ed33589a1f9539d08affa2e2e09fd5d86dddd0e657f8a6a43d9d92f8906c624c",
                "id": "3fd60679-cc91-3703-9ce5-34098babbbdc",
                "name": "lupi_svm.LupiSvmClassifier",
                "python_path": "d3m.primitives.classification.lupi_svm.LupiSvmClassifier",
                "version": "v6.0.0"
            },
            "type": "PRIMITIVE"
        },
        {
            "arguments": {
                "inputs": {
                    "data": "steps.2.produce",
                    "type": "CONTAINER"
                },
                "reference": {
                    "data": "steps.1.produce",
                    "type": "CONTAINER"
                }
            },
            "outputs": [
                {
                    "id": "produce"
                }
            ],
            "primitive": {
                "digest": "72b09a3850221af181095b84d76904107a59fa40ed6631c5e42b45a6f2151772",
                "id": "8d38b340-f83f-4877-baaa-162f8e551736",
                "name": "Construct pipeline predictions output",
                "python_path": "d3m.primitives.data_transformation.construct_predictions.Common",
                "version": "0.3.0"
            },
            "type": "PRIMITIVE"
        }
    ]
}
