{
    "id": "28ad180e-ef88-427a-ac00-0673efc72b3b",
    "version": "0.1.0",
    "name": "Bayesian linear regression",
    "keywords": [
        "Bayesian",
        "regression"
    ],
    "source": {
        "name": "common-primitives",
        "contact": "mailto:mteng@robots.ox.ac.uk",
        "uris": [
            "https://gitlab.com/datadrivendiscovery/common-primitives/blob/master/common_primitives/linear_regression.py",
            "https://gitlab.com/datadrivendiscovery/common-primitives.git"
        ]
    },
    "installation": [
        {
            "type": "PIP",
            "package_uri": "git+https://gitlab.com/datadrivendiscovery/common-primitives.git@3df2ad23e1801e43166c64dc5767d847f232181d#egg=common-primitives"
        }
    ],
    "python_path": "d3m.primitives.regression.linear_regression.Common",
    "algorithm_types": [
        "LINEAR_REGRESSION"
    ],
    "primitive_family": "REGRESSION",
    "schema": "https://metadata.datadrivendiscovery.org/schemas/v0/primitive.json",
    "original_python_path": "common_primitives.linear_regression.LinearRegression",
    "primitive_code": {
        "class_type_arguments": {
            "Inputs": "d3m.container.numpy.ndarray",
            "Outputs": "d3m.container.numpy.ndarray",
            "Params": "common_primitives.linear_regression.Params",
            "Hyperparams": "common_primitives.linear_regression.Hyperparams"
        },
        "interfaces_version": "2019.4.4",
        "interfaces": [
            "base.ProbabilisticCompositionalityMixin",
            "base.GradientCompositionalityMixin",
            "base.SamplingCompositionalityMixin",
            "supervised_learning.SupervisedLearnerPrimitiveBase",
            "base.PrimitiveBase"
        ],
        "hyperparams": {
            "weights_prior": {
                "type": "d3m.metadata.hyperparams.Hyperparameter",
                "default": null,
                "structural_type": "typing.Union[NoneType, d3m.primitive_interfaces.base.GradientCompositionalityMixin]",
                "semantic_types": [
                    "https://metadata.datadrivendiscovery.org/types/TuningParameter"
                ],
                "description": "prior on weights"
            },
            "learning_rate": {
                "type": "d3m.metadata.hyperparams.Hyperparameter",
                "default": 0.001,
                "structural_type": "float",
                "semantic_types": [
                    "https://metadata.datadrivendiscovery.org/types/TuningParameter"
                ],
                "description": "a tuning parameter for analytic fit"
            },
            "batch_size": {
                "type": "d3m.metadata.hyperparams.Hyperparameter",
                "default": 1,
                "structural_type": "float",
                "semantic_types": [
                    "https://metadata.datadrivendiscovery.org/types/TuningParameter"
                ],
                "description": "a tuning parameter for analytic fit"
            },
            "tune_prior_end_to_end": {
                "type": "d3m.metadata.hyperparams.Hyperparameter",
                "default": false,
                "structural_type": "int",
                "semantic_types": [
                    "https://metadata.datadrivendiscovery.org/types/TuningParameter"
                ],
                "description": "setting this to true will case the end to end training to propogate                                         back to the prior parameters. what this means is that the actual                                         parameters of the prior distribution are going to be changed                                        according to the chain rule."
            },
            "analytic_fit_threshold": {
                "type": "d3m.metadata.hyperparams.Hyperparameter",
                "default": 100,
                "structural_type": "int",
                "semantic_types": [
                    "https://metadata.datadrivendiscovery.org/types/ControlParameter"
                ],
                "description": "the threshold under which analytic fit is still used.                                         Realistically, over 1000 cannot be done, but this hyperparam can also                                         be used to force gradient fitting even if analytic solution is possible                                         i.e. by setting to 0"
            }
        },
        "arguments": {
            "hyperparams": {
                "type": "common_primitives.linear_regression.Hyperparams",
                "kind": "RUNTIME"
            },
            "gradient_outputs": {
                "type": "d3m.primitive_interfaces.base.Gradients[d3m.container.numpy.ndarray]",
                "kind": "RUNTIME"
            },
            "fine_tune": {
                "type": "bool",
                "kind": "RUNTIME",
                "default": false
            },
            "fine_tune_learning_rate": {
                "type": "float",
                "kind": "RUNTIME",
                "default": 1e-05
            },
            "timeout": {
                "type": "typing.Union[NoneType, float]",
                "kind": "RUNTIME",
                "default": null
            },
            "iterations": {
                "type": "typing.Union[NoneType, int]",
                "kind": "RUNTIME",
                "default": null
            },
            "produce_methods": {
                "type": "typing.Sequence[str]",
                "kind": "RUNTIME"
            },
            "inputs": {
                "type": "d3m.container.numpy.ndarray",
                "kind": "PIPELINE"
            },
            "outputs": {
                "type": "d3m.container.numpy.ndarray",
                "kind": "PIPELINE"
            },
            "num_samples": {
                "type": "int",
                "kind": "RUNTIME",
                "default": 1
            },
            "temperature": {
                "type": "float",
                "kind": "RUNTIME",
                "default": 0
            },
            "params": {
                "type": "common_primitives.linear_regression.Params",
                "kind": "RUNTIME"
            }
        },
        "class_methods": {
            "can_accept": {
                "arguments": {
                    "method_name": {
                        "type": "str"
                    },
                    "arguments": {
                        "type": "typing.Dict[str, typing.Union[d3m.metadata.base.Metadata, type]]"
                    },
                    "hyperparams": {
                        "type": "common_primitives.linear_regression.Hyperparams"
                    }
                },
                "returns": "typing.Union[NoneType, d3m.metadata.base.DataMetadata]",
                "description": "Returns a metadata object describing the output of a call of ``method_name`` method under\n``hyperparams`` with primitive arguments ``arguments``, if such arguments can be accepted by the method.\nOtherwise it returns ``None`` or raises an exception.\n\nDefault implementation checks structural types of ``arguments`` expected arguments' types\nand ignores ``hyperparams``.\n\nBy (re)implementing this method, a primitive can fine-tune which arguments it accepts\nfor its methods which goes beyond just structural type checking. For example, a primitive might\noperate only on images, so it can accept numpy arrays, but only those with semantic type\ncorresponding to an image. Or it might check dimensions of an array to assure it operates\non square matrix.\n\nPrimitive arguments are a superset of method arguments. This method receives primitive arguments and\nnot just method arguments so that it is possible to implement it without a state between calls\nto ``can_accept`` for multiple methods. For example, a call to ``fit`` could during normal execution\ninfluences what a later ``produce`` call outputs. But during ``can_accept`` call we can directly have\naccess to arguments which would have been given to ``fit`` to produce metadata of the ``produce`` call.\n\nNot all primitive arguments have to be provided, only those used by ``fit``, ``set_training_data``,\nand produce methods, and those used by the ``method_name`` method itself.\n\nParameters\n----------\nmethod_name : str\n    Name of the method which would be called.\narguments : Dict[str, Union[Metadata, type]]\n    A mapping between argument names and their metadata objects (for pipeline arguments) or types (for other).\nhyperparams : Hyperparams\n    Hyper-parameters under which the method would be called during regular primitive execution.\n\nReturns\n-------\nDataMetadata\n    Metadata object of the method call result, or ``None`` if arguments are not accepted\n    by the method."
            }
        },
        "instance_methods": {
            "__init__": {
                "kind": "OTHER",
                "arguments": [
                    "hyperparams"
                ],
                "returns": "NoneType"
            },
            "backward": {
                "kind": "OTHER",
                "arguments": [
                    "gradient_outputs",
                    "fine_tune",
                    "fine_tune_learning_rate"
                ],
                "returns": "typing.Tuple[d3m.primitive_interfaces.base.Gradients[d3m.container.numpy.ndarray], d3m.primitive_interfaces.base.Gradients[common_primitives.linear_regression.Params]]",
                "description": "Returns the gradient with respect to inputs and with respect to params of a loss\nthat is being backpropagated end-to-end in a pipeline.\n\nThis is the standard backpropagation algorithm: backpropagation needs to be preceded by a\nforward propagation (``forward`` method).\n\nParameters\n----------\ngradient_outputs : Gradients[Outputs]\n    The gradient of the loss with respect to this primitive's output. During backpropagation,\n    this comes from the next primitive in the pipeline, i.e., the primitive whose input\n    is the output of this primitive during the forward execution with ``forward`` (and ``produce``).\nfine_tune : bool\n    If ``True``, executes a fine-tuning gradient descent step as a part of this call.\n    This provides the most straightforward way of end-to-end training/fine-tuning.\nfine_tune_learning_rate : float\n    Learning rate for end-to-end training/fine-tuning gradient descent steps.\nfine_tune_weight_decay : float\n    L2 regularization (weight decay) coefficient for end-to-end training/fine-tuning gradient\n    descent steps.\n\nReturns\n-------\nTuple[Gradients[Inputs], Gradients[Params]]\n    A tuple of the gradient with respect to inputs and with respect to params."
            },
            "fit": {
                "kind": "OTHER",
                "arguments": [
                    "timeout",
                    "iterations"
                ],
                "returns": "d3m.primitive_interfaces.base.CallResult[NoneType]",
                "description": "Runs gradient descent for ``timeout`` seconds or ``iterations``\niterations, whichever comes sooner, on log normal_density(self.weights * self.input\n- output, identity*self.noise_variance) +\nparameter_prior_primitives[\"weights\"].score(self.weights) +\nparameter_prior_primitives[\"noise_variance\"].score(noise_variance).\n\nParameters\n----------\ntimeout : float\n    A maximum time this primitive should be fitting during this method call, in seconds.\niterations : int\n    How many of internal iterations should the primitive do.\n\nReturns\n-------\nCallResult[None]\n    A ``CallResult`` with ``None`` value."
            },
            "fit_multi_produce": {
                "kind": "OTHER",
                "arguments": [
                    "produce_methods",
                    "inputs",
                    "outputs",
                    "timeout",
                    "iterations"
                ],
                "returns": "d3m.primitive_interfaces.base.MultiCallResult",
                "description": "A method calling ``fit`` and after that multiple produce methods at once.\n\nThis method allows primitive author to implement an optimized version of both fitting\nand producing a primitive on same data.\n\nIf any additional method arguments are added to primitive's ``set_training_data`` method\nor produce method(s), or removed from them, they have to be added to or removed from this\nmethod as well. This method should accept an union of all arguments accepted by primitive's\n``set_training_data`` method and produce method(s) and then use them accordingly when\ncomputing results.\n\nThe default implementation of this method just calls first ``set_training_data`` method,\n``fit`` method, and all produce methods listed in ``produce_methods`` in order and is\npotentially inefficient.\n\nParameters\n----------\nproduce_methods : Sequence[str]\n    A list of names of produce methods to call.\ninputs : Inputs\n    The inputs given to ``set_training_data`` and all produce methods.\noutputs : Outputs\n    The outputs given to ``set_training_data``.\ntimeout : float\n    A maximum time this primitive should take to both fit the primitive and produce outputs\n    for all produce methods listed in ``produce_methods`` argument, in seconds.\niterations : int\n    How many of internal iterations should the primitive do for both fitting and producing\n    outputs of all produce methods.\n\nReturns\n-------\nMultiCallResult\n    A dict of values for each produce method wrapped inside ``MultiCallResult``."
            },
            "forward": {
                "kind": "OTHER",
                "arguments": [
                    "inputs"
                ],
                "returns": "d3m.container.numpy.ndarray",
                "description": "Similar to ``produce`` method but it is meant to be used for a forward pass during\nbackpropagation-based end-to-end training. Primitive can implement it differently\nthan ``produce``, e.g., forward pass during training can enable dropout layers, or\n``produce`` might not compute gradients while ``forward`` does.\n\nBy default it calls ``produce`` for one iteration.\n\nParameters\n----------\ninputs : Inputs\n    The inputs of shape [num_inputs, ...].\n\nReturns\n-------\nOutputs\n    The outputs of shape [num_inputs, ...]."
            },
            "get_call_metadata": {
                "kind": "OTHER",
                "arguments": [],
                "returns": "d3m.primitive_interfaces.base.CallResult"
            },
            "get_params": {
                "kind": "OTHER",
                "arguments": [],
                "returns": "common_primitives.linear_regression.Params",
                "description": "Returns parameters of this primitive.\n\nParameters are all parameters of the primitive which can potentially change during a life-time of\na primitive. Parameters which cannot are passed through constructor.\n\nParameters should include all data which is necessary to create a new instance of this primitive\nbehaving exactly the same as this instance, when the new instance is created by passing the same\nparameters to the class constructor and calling ``set_params``.\n\nNo other arguments to the method are allowed (except for private arguments).\n\nReturns\n-------\nParams\n    An instance of parameters."
            },
            "gradient_output": {
                "kind": "OTHER",
                "arguments": [
                    "outputs",
                    "inputs"
                ],
                "returns": "d3m.primitive_interfaces.base.Gradients[d3m.container.numpy.ndarray]",
                "description": "Calculates grad_output log normal_density(self.weights * self.input - output, identity * self.noise_variance)\nfor a single input/output pair.\n\nParameters\n----------\noutputs : Outputs\n    The outputs.\ninputs : Inputs\n    The inputs.\n\nReturns\n-------\nGradients[Outputs]\n    A structure similar to ``Container`` but the values are of type ``Optional[float]``."
            },
            "gradient_params": {
                "kind": "OTHER",
                "arguments": [
                    "outputs",
                    "inputs"
                ],
                "returns": "d3m.primitive_interfaces.base.Gradients[common_primitives.linear_regression.Params]",
                "description": "Calculates grad_weights fit_term_temperature *\nlog normal_density(self.weights * self.input - output, identity * self.noise_variance)\nfor a single input/output pair.\n\nParameters\n----------\noutputs : Outputs\n    The outputs.\ninputs : Inputs\n    The inputs.\n\nReturns\n-------\nGradients[Params]\n    A version of ``Params`` with all differentiable fields from ``Params`` and values set to gradient for each parameter."
            },
            "log_likelihood": {
                "kind": "OTHER",
                "arguments": [
                    "outputs",
                    "inputs",
                    "timeout",
                    "iterations"
                ],
                "returns": "d3m.primitive_interfaces.base.CallResult[float]",
                "description": "Returns log probability of outputs given inputs and params under this primitive:\n\nsum_i(log(p(output_i | input_i, params)))\n\nBy default it calls ``log_likelihoods`` and tries to automatically compute a sum, but subclasses can\nimplement a more efficient or even correct version.\n\nParameters\n----------\noutputs : Outputs\n    The outputs. The number of samples should match ``inputs``.\ninputs : Inputs\n    The inputs. The number of samples should match ``outputs``.\ntimeout : float\n    A maximum time this primitive should take to produce outputs during this method call, in seconds.\niterations : int\n    How many of internal iterations should the primitive do.\n\nReturns\n-------\nCallResult[Outputs]\n    sum_i(log(p(output_i | input_i, params))) wrapped inside ``CallResult``.\n    The number of returned samples is always 1.\n    The number of columns should match the number of target columns in ``outputs``."
            },
            "log_likelihoods": {
                "kind": "OTHER",
                "arguments": [
                    "outputs",
                    "inputs",
                    "timeout",
                    "iterations"
                ],
                "returns": "d3m.primitive_interfaces.base.CallResult[d3m.container.numpy.ndarray]",
                "description": "input : D-length numpy ndarray\noutput : float\nCalculates\nlog(normal_density(self.weights * self.input - output, identity * self.noise_variance))\nfor a single input/output pair.\n\nParameters\n----------\noutputs : Outputs\n    The outputs. The number of samples should match ``inputs``.\ninputs : Inputs\n    The inputs. The number of samples should match ``outputs``.\ntimeout : float\n    A maximum time this primitive should take to produce outputs during this method call, in seconds.\niterations : int\n    How many of internal iterations should the primitive do.\n\nReturns\n-------\nCallResult[Outputs]\n    log(p(output_i | input_i, params))) wrapped inside ``CallResult``.\n    The number of columns should match the number of target columns in ``outputs``."
            },
            "multi_produce": {
                "kind": "OTHER",
                "arguments": [
                    "produce_methods",
                    "inputs",
                    "timeout",
                    "iterations"
                ],
                "returns": "d3m.primitive_interfaces.base.MultiCallResult",
                "description": "A method calling multiple produce methods at once.\n\nWhen a primitive has multiple produce methods it is common that they might compute the\nsame internal results for same inputs but return different representations of those results.\nIf caller is interested in multiple of those representations, calling multiple produce\nmethods might lead to recomputing same internal results multiple times. To address this,\nthis method allows primitive author to implement an optimized version which computes\ninternal results only once for multiple calls of produce methods, but return those different\nrepresentations.\n\nIf any additional method arguments are added to primitive's produce method(s), they have\nto be added to this method as well. This method should accept an union of all arguments\naccepted by primitive's produce method(s) and then use them accordingly when computing\nresults.\n\nThe default implementation of this method just calls all produce methods listed in\n``produce_methods`` in order and is potentially inefficient.\n\nParameters\n----------\nproduce_methods : Sequence[str]\n    A list of names of produce methods to call.\ninputs : Inputs\n    The inputs given to all produce methods.\ntimeout : float\n    A maximum time this primitive should take to produce outputs for all produce methods\n    listed in ``produce_methods`` argument, in seconds.\niterations : int\n    How many of internal iterations should the primitive do.\n\nReturns\n-------\nMultiCallResult\n    A dict of values for each produce method wrapped inside ``MultiCallResult``."
            },
            "produce": {
                "kind": "PRODUCE",
                "arguments": [
                    "inputs",
                    "timeout",
                    "iterations"
                ],
                "returns": "d3m.primitive_interfaces.base.CallResult[d3m.container.numpy.ndarray]",
                "singleton": false,
                "inputs_across_samples": [],
                "description": "inputs : (num_inputs,  D) numpy array\noutputs : numpy array of dimension (num_inputs)\n\nParameters\n----------\ninputs : Inputs\n    The inputs of shape [num_inputs, ...].\ntimeout : float\n    A maximum time this primitive should take to produce outputs during this method call, in seconds.\niterations : int\n    How many of internal iterations should the primitive do.\n\nReturns\n-------\nCallResult[Outputs]\n    The outputs of shape [num_inputs, ...] wrapped inside ``CallResult``."
            },
            "sample": {
                "kind": "OTHER",
                "arguments": [
                    "inputs",
                    "num_samples",
                    "timeout",
                    "iterations"
                ],
                "returns": "d3m.primitive_interfaces.base.CallResult[typing.Sequence[d3m.container.numpy.ndarray]]",
                "description": "input : num_inputs x D numpy ndarray\noutputs : num_predictions x num_inputs numpy ndarray\n\nParameters\n----------\ninputs : Inputs\n    The inputs of shape [num_inputs, ...].\nnum_samples : int\n    The number of samples to return in a set of samples.\ntimeout : float\n    A maximum time this primitive should take to sample outputs during this method call, in seconds.\niterations : int\n    How many of internal iterations should the primitive do.\n\nReturns\n-------\nCallResult[Sequence[Outputs]]\n    The multiple sets of samples of shape [num_samples, num_inputs, ...] wrapped inside\n    ``CallResult``. While the output value type is specified as ``Sequence[Outputs]``, the\n    output value can be in fact any container type with dimensions/shape equal to combined\n    ``Sequence[Outputs]`` dimensions/shape. Subclasses should specify which exactly type\n    the output is."
            },
            "set_fit_term_temperature": {
                "kind": "OTHER",
                "arguments": [
                    "temperature"
                ],
                "returns": "NoneType",
                "description": "Sets the temperature used in ``gradient_output`` and ``gradient_params``.\n\nParameters\n----------\ntemperature : float\n    The temperature to use, [0, inf), typically, [0, 1]."
            },
            "set_params": {
                "kind": "OTHER",
                "arguments": [
                    "params"
                ],
                "returns": "NoneType",
                "description": "Sets parameters of this primitive.\n\nParameters are all parameters of the primitive which can potentially change during a life-time of\na primitive. Parameters which cannot are passed through constructor.\n\nNo other arguments to the method are allowed (except for private arguments).\n\nParameters\n----------\nparams : Params\n    An instance of parameters."
            },
            "set_training_data": {
                "kind": "OTHER",
                "arguments": [
                    "inputs",
                    "outputs"
                ],
                "returns": "NoneType",
                "description": "Sets training data of this primitive.\n\nStandard sublasses in this package do not adhere to the Liskov substitution principle when\ninheriting this method because they do not necessary accept all arguments found in the base\nclass. This means that one has to inspect which arguments are accepted at runtime, or in\nother words, one has to inspect which exactly subclass a primitive implements, if\nyou are accepting a wider range of primitives. This relaxation is allowed only for\nstandard subclasses found in this package. Primitives themselves should not break\nthe Liskov substitution principle but should inherit from a suitable base class.\n\nParameters\n----------\ninputs : Inputs\n    The inputs.\noutputs : Outputs\n    The outputs."
            }
        },
        "class_attributes": {
            "logger": "logging.Logger",
            "metadata": "d3m.metadata.base.PrimitiveMetadata"
        },
        "instance_attributes": {
            "hyperparams": "d3m.metadata.hyperparams.Hyperparams",
            "random_seed": "int",
            "docker_containers": "typing.Dict[str, d3m.primitive_interfaces.base.DockerContainer]",
            "volumes": "typing.Dict[str, str]",
            "temporary_directory": "typing.Union[NoneType, str]"
        },
        "params": {
            "weights": "d3m.container.numpy.ndarray",
            "weights_variance": "d3m.container.numpy.ndarray",
            "offset": "float",
            "noise_variance": "float"
        }
    },
    "structural_type": "common_primitives.linear_regression.LinearRegression",
    "description": "Example of a primitive wrapping implementing a linear regression using a high-performance\nPyTorch backend, providing methods from multiple mixins.\n\nAttributes\n----------\nmetadata : PrimitiveMetadata\n    Primitive's metadata. Available as a class attribute.\nlogger : Logger\n    Primitive's logger. Available as a class attribute.\nhyperparams : Hyperparams\n    Hyperparams passed to the constructor.\nrandom_seed : int\n    Random seed passed to the constructor.\ndocker_containers : Dict[str, DockerContainer]\n    A dict mapping Docker image keys from primitive's metadata to (named) tuples containing\n    container's address under which the container is accessible by the primitive, and a\n    dict mapping exposed ports to ports on that address.\nvolumes : Dict[str, str]\n    A dict mapping volume keys from primitive's metadata to file and directory paths\n    where downloaded and extracted files are available to the primitive.\ntemporary_directory : str\n    An absolute path to a temporary directory a primitive can use to store any files\n    for the duration of the current pipeline run phase. Directory is automatically\n    cleaned up after the current pipeline run phase finishes.",
    "digest": "643938feb3f30377a0b9a1336631635c97a3b136daf09166a9cad9423ab3157a"
}
