{
  "algorithm_types": [
    "MULTILAYER_PERCEPTRON"
  ],
  "name": "sklearn.neural_network.multilayer_perceptron.MLPRegressor",
  "primitive_family": "REGRESSION",
  "python_path": "d3m.primitives.regression.mlp.SKlearn",
  "source": {
    "name": "JPL",
    "contact": "mailto:shah@jpl.nasa.gov",
    "uris": [
      "https://gitlab.com/datadrivendiscovery/sklearn-wrap/issues",
      "https://scikit-learn.org/stable/modules/generated/sklearn.neural_network.MLPRegressor.html"
    ]
  },
  "version": "2021.3.19",
  "id": "a4fedbf8-f69a-3440-9423-559291dfbd61",
  "hyperparams_to_tune": [
    "hidden_layer_sizes",
    "activation",
    "solver",
    "alpha"
  ],
  "installation": [
    {
      "type": "PIP",
      "package_uri": "git+https://gitlab.com/datadrivendiscovery/sklearn-wrap.git@0c9004275f5260b3d6c21140e4cff766bf1ee19c#egg=sklearn_wrap"
    }
  ],
  "schema": "https://metadata.datadrivendiscovery.org/schemas/v0/primitive.json",
  "original_python_path": "sklearn_wrap.SKMLPRegressor.SKMLPRegressor",
  "primitive_code": {
    "class_type_arguments": {
      "Inputs": "d3m.container.pandas.DataFrame",
      "Outputs": "d3m.container.pandas.DataFrame",
      "Params": "sklearn_wrap.SKMLPRegressor.Params",
      "Hyperparams": "sklearn_wrap.SKMLPRegressor.Hyperparams"
    },
    "interfaces_version": "2020.11.3",
    "interfaces": [
      "supervised_learning.SupervisedLearnerPrimitiveBase",
      "base.PrimitiveBase"
    ],
    "hyperparams": {
      "hidden_layer_sizes": {
        "type": "d3m.metadata.hyperparams.List",
        "default": [
          100
        ],
        "structural_type": "typing.Sequence[int]",
        "semantic_types": [
          "https://metadata.datadrivendiscovery.org/types/TuningParameter"
        ],
        "description": "The ith element represents the number of neurons in the ith hidden layer.",
        "elements": {
          "type": "d3m.metadata.hyperparams.Bounded",
          "default": 100,
          "structural_type": "int",
          "semantic_types": [],
          "lower": 1,
          "upper": null,
          "lower_inclusive": true,
          "upper_inclusive": false
        },
        "is_configuration": false,
        "min_size": 1
      },
      "activation": {
        "type": "d3m.metadata.hyperparams.Enumeration",
        "default": "relu",
        "structural_type": "str",
        "semantic_types": [
          "https://metadata.datadrivendiscovery.org/types/TuningParameter"
        ],
        "description": "Activation function for the hidden layer.  - 'identity', no-op activation, useful to implement linear bottleneck, returns f(x) = x  - 'logistic', the logistic sigmoid function, returns f(x) = 1 / (1 + exp(-x)).  - 'tanh', the hyperbolic tan function, returns f(x) = tanh(x).  - 'relu', the rectified linear unit function, returns f(x) = max(0, x)",
        "values": [
          "identity",
          "logistic",
          "tanh",
          "relu"
        ]
      },
      "solver": {
        "type": "d3m.metadata.hyperparams.Choice",
        "default": {
          "learning_rate_init": 0.001,
          "shuffle": true,
          "early_stopping": false,
          "beta_1": 0.9,
          "beta_2": 0.999,
          "epsilon": 1e-08,
          "n_iter_no_change": 10,
          "choice": "adam"
        },
        "structural_type": "typing.Dict",
        "semantic_types": [
          "https://metadata.datadrivendiscovery.org/types/TuningParameter"
        ],
        "description": "The solver for weight optimization.  - 'lbfgs' is an optimizer in the family of quasi-Newton methods.  - 'sgd' refers to stochastic gradient descent.  - 'adam' refers to a stochastic gradient-based optimizer proposed by Kingma, Diederik, and Jimmy Ba  Note: The default solver 'adam' works pretty well on relatively large datasets (with thousands of training samples or more) in terms of both training time and validation score. For small datasets, however, 'lbfgs' can converge faster and perform better.",
        "choices": {
          "lbfgs": {
            "max_fun": {
              "type": "d3m.metadata.hyperparams.Bounded",
              "default": 15000,
              "structural_type": "int",
              "semantic_types": [
                "https://metadata.datadrivendiscovery.org/types/TuningParameter"
              ],
              "description": "Maximum number of loss function calls",
              "lower": 1,
              "upper": null,
              "lower_inclusive": true,
              "upper_inclusive": false
            },
            "choice": {
              "type": "d3m.metadata.hyperparams.Hyperparameter",
              "default": "lbfgs",
              "structural_type": "str",
              "semantic_types": [
                "https://metadata.datadrivendiscovery.org/types/ChoiceParameter"
              ]
            }
          },
          "sgd": {
            "learning_rate": {
              "type": "d3m.metadata.hyperparams.Enumeration",
              "default": "constant",
              "structural_type": "str",
              "semantic_types": [
                "https://metadata.datadrivendiscovery.org/types/TuningParameter"
              ],
              "description": "Learning rate schedule for weight updates. Only used when solver=\u2019sgd\u2019.",
              "values": [
                "constant",
                "invscaling",
                "adaptive"
              ]
            },
            "learning_rate_init": {
              "type": "d3m.metadata.hyperparams.Bounded",
              "default": 0.001,
              "structural_type": "float",
              "semantic_types": [
                "https://metadata.datadrivendiscovery.org/types/TuningParameter"
              ],
              "description": "The initial learning rate used. It controls the step-size in updating the weights. Only used when solver=\u2019sgd\u2019 or \u2018adam\u2019.",
              "lower": 0,
              "upper": null,
              "lower_inclusive": true,
              "upper_inclusive": false
            },
            "power_t": {
              "type": "d3m.metadata.hyperparams.Bounded",
              "default": 0.5,
              "structural_type": "float",
              "semantic_types": [
                "https://metadata.datadrivendiscovery.org/types/TuningParameter"
              ],
              "description": "The exponent for inverse scaling learning rate. Only used when solver=\u2019sgd\u2019.",
              "lower": 0,
              "upper": null,
              "lower_inclusive": true,
              "upper_inclusive": false
            },
            "shuffle": {
              "type": "d3m.metadata.hyperparams.UniformBool",
              "default": true,
              "structural_type": "bool",
              "semantic_types": [
                "https://metadata.datadrivendiscovery.org/types/TuningParameter"
              ],
              "description": "Whether to shuffle samples in each iteration. Only used when solver=\u2019sgd\u2019 or \u2018adam\u2019."
            },
            "momentum": {
              "type": "d3m.metadata.hyperparams.Bounded",
              "default": 0.9,
              "structural_type": "float",
              "semantic_types": [
                "https://metadata.datadrivendiscovery.org/types/TuningParameter"
              ],
              "description": "Momentum for gradient descent update. Should be between 0 and 1. Only used when solver=\u2019sgd\u2019.",
              "lower": 0,
              "upper": 1,
              "lower_inclusive": true,
              "upper_inclusive": true
            },
            "nesterovs_momentum": {
              "type": "d3m.metadata.hyperparams.UniformBool",
              "default": true,
              "structural_type": "bool",
              "semantic_types": [
                "https://metadata.datadrivendiscovery.org/types/TuningParameter"
              ],
              "description": "Whether to use Nesterov\u2019s momentum. Only used when solver=\u2019sgd\u2019 and momentum > 0."
            },
            "early_stopping": {
              "type": "d3m.metadata.hyperparams.UniformBool",
              "default": false,
              "structural_type": "bool",
              "semantic_types": [
                "https://metadata.datadrivendiscovery.org/types/TuningParameter"
              ],
              "description": "Whether to use early stopping to terminate training when validation score is not improving.If set to true, it will automatically set aside 10% of training data as validation and terminate training when validation score is not improving by at least tol for n_iter_no_change consecutive epochs."
            },
            "n_iter_no_change": {
              "type": "d3m.metadata.hyperparams.Bounded",
              "default": 10,
              "structural_type": "int",
              "semantic_types": [
                "https://metadata.datadrivendiscovery.org/types/TuningParameter"
              ],
              "description": "Maximum number of epochs to not meet tol improvement. Only effective when solver=\u2019sgd\u2019 or \u2018adam\u2019.",
              "lower": 1,
              "upper": null,
              "lower_inclusive": true,
              "upper_inclusive": false
            },
            "choice": {
              "type": "d3m.metadata.hyperparams.Hyperparameter",
              "default": "sgd",
              "structural_type": "str",
              "semantic_types": [
                "https://metadata.datadrivendiscovery.org/types/ChoiceParameter"
              ]
            }
          },
          "adam": {
            "learning_rate_init": {
              "type": "d3m.metadata.hyperparams.Bounded",
              "default": 0.001,
              "structural_type": "float",
              "semantic_types": [
                "https://metadata.datadrivendiscovery.org/types/TuningParameter"
              ],
              "description": "The initial learning rate used. It controls the step-size in updating the weights. Only used when solver=\u2019sgd\u2019 or \u2018adam\u2019.",
              "lower": 0,
              "upper": null,
              "lower_inclusive": true,
              "upper_inclusive": false
            },
            "shuffle": {
              "type": "d3m.metadata.hyperparams.UniformBool",
              "default": true,
              "structural_type": "bool",
              "semantic_types": [
                "https://metadata.datadrivendiscovery.org/types/TuningParameter"
              ],
              "description": "Whether to shuffle samples in each iteration. Only used when solver=\u2019sgd\u2019 or \u2018adam\u2019."
            },
            "early_stopping": {
              "type": "d3m.metadata.hyperparams.UniformBool",
              "default": false,
              "structural_type": "bool",
              "semantic_types": [
                "https://metadata.datadrivendiscovery.org/types/TuningParameter"
              ],
              "description": "Whether to use early stopping to terminate training when validation score is not improving.If set to true, it will automatically set aside 10% of training data as validation and terminate training when validation score is not improving by at least tol for n_iter_no_change consecutive epochs."
            },
            "beta_1": {
              "type": "d3m.metadata.hyperparams.Bounded",
              "default": 0.9,
              "structural_type": "float",
              "semantic_types": [
                "https://metadata.datadrivendiscovery.org/types/TuningParameter"
              ],
              "description": "Exponential decay rate for estimates of first moment vector in adam, should be in [0, 1).",
              "lower": 0,
              "upper": 1,
              "lower_inclusive": true,
              "upper_inclusive": true
            },
            "beta_2": {
              "type": "d3m.metadata.hyperparams.Bounded",
              "default": 0.999,
              "structural_type": "float",
              "semantic_types": [
                "https://metadata.datadrivendiscovery.org/types/TuningParameter"
              ],
              "description": "Exponential decay rate for estimates of second moment vector in adam, should be in [0, 1).",
              "lower": 0,
              "upper": 1,
              "lower_inclusive": true,
              "upper_inclusive": true
            },
            "epsilon": {
              "type": "d3m.metadata.hyperparams.Bounded",
              "default": 1e-08,
              "structural_type": "float",
              "semantic_types": [
                "https://metadata.datadrivendiscovery.org/types/TuningParameter"
              ],
              "description": "Value for numerical stability in adam. Only used when solver=\u2019adam\u2019",
              "lower": 0,
              "upper": null,
              "lower_inclusive": true,
              "upper_inclusive": false
            },
            "n_iter_no_change": {
              "type": "d3m.metadata.hyperparams.Bounded",
              "default": 10,
              "structural_type": "int",
              "semantic_types": [
                "https://metadata.datadrivendiscovery.org/types/TuningParameter"
              ],
              "description": "Maximum number of epochs to not meet tol improvement. Only effective when solver=\u2019sgd\u2019 or \u2018adam\u2019.",
              "lower": 1,
              "upper": null,
              "lower_inclusive": true,
              "upper_inclusive": false
            },
            "choice": {
              "type": "d3m.metadata.hyperparams.Hyperparameter",
              "default": "adam",
              "structural_type": "str",
              "semantic_types": [
                "https://metadata.datadrivendiscovery.org/types/ChoiceParameter"
              ]
            }
          }
        }
      },
      "alpha": {
        "type": "d3m.metadata.hyperparams.Bounded",
        "default": 0.0001,
        "structural_type": "float",
        "semantic_types": [
          "https://metadata.datadrivendiscovery.org/types/TuningParameter"
        ],
        "description": "L2 penalty (regularization term) parameter.",
        "lower": 0,
        "upper": null,
        "lower_inclusive": true,
        "upper_inclusive": false
      },
      "batch_size": {
        "type": "d3m.metadata.hyperparams.Union",
        "default": "auto",
        "structural_type": "typing.Union[int, str]",
        "semantic_types": [
          "https://metadata.datadrivendiscovery.org/types/TuningParameter"
        ],
        "description": "Size of minibatches for stochastic optimizers. If the solver is 'lbfgs', the classifier will not use minibatch. When set to \"auto\", `batch_size=min(200, n_samples)`",
        "configuration": {
          "int": {
            "type": "d3m.metadata.hyperparams.Bounded",
            "default": 16,
            "structural_type": "int",
            "semantic_types": [
              "https://metadata.datadrivendiscovery.org/types/TuningParameter"
            ],
            "description": "Size of minibatches for stochastic optimizers. If the solver is 'lbfgs', the classifier will not use minibatch",
            "lower": 0,
            "upper": null,
            "lower_inclusive": true,
            "upper_inclusive": false
          },
          "auto": {
            "type": "d3m.metadata.hyperparams.Constant",
            "default": "auto",
            "structural_type": "str",
            "semantic_types": [
              "https://metadata.datadrivendiscovery.org/types/TuningParameter"
            ],
            "description": "When set to 'auto', batch_size=min(200, n_samples)"
          }
        }
      },
      "max_iter": {
        "type": "d3m.metadata.hyperparams.Bounded",
        "default": 200,
        "structural_type": "int",
        "semantic_types": [
          "https://metadata.datadrivendiscovery.org/types/TuningParameter"
        ],
        "description": "Maximum number of iterations. The solver iterates until convergence (determined by 'tol') or this number of iterations. For stochastic solvers ('sgd', 'adam'), note that this determines the number of epochs (how many times each data point will be used), not the number of gradient steps.",
        "lower": 0,
        "upper": null,
        "lower_inclusive": true,
        "upper_inclusive": false
      },
      "tol": {
        "type": "d3m.metadata.hyperparams.Bounded",
        "default": 0.0001,
        "structural_type": "float",
        "semantic_types": [
          "https://metadata.datadrivendiscovery.org/types/TuningParameter"
        ],
        "description": "Tolerance for the optimization. When the loss or score is not improving by at least ``tol`` for ``n_iter_no_change`` consecutive iterations, unless ``learning_rate`` is set to 'adaptive', convergence is considered to be reached and training stops.",
        "lower": 0,
        "upper": null,
        "lower_inclusive": true,
        "upper_inclusive": false
      },
      "warm_start": {
        "type": "d3m.metadata.hyperparams.UniformBool",
        "default": false,
        "structural_type": "bool",
        "semantic_types": [
          "https://metadata.datadrivendiscovery.org/types/TuningParameter"
        ],
        "description": "When set to True, reuse the solution of the previous call to fit as initialization, otherwise, just erase the previous solution. See :term:`the Glossary <warm_start>`."
      },
      "validation_fraction": {
        "type": "d3m.metadata.hyperparams.Bounded",
        "default": 0.1,
        "structural_type": "float",
        "semantic_types": [
          "https://metadata.datadrivendiscovery.org/types/TuningParameter"
        ],
        "description": "The proportion of training data to set aside as validation set for early stopping. Must be between 0 and 1. Only used if early_stopping is True",
        "lower": 0,
        "upper": null,
        "lower_inclusive": true,
        "upper_inclusive": false
      },
      "use_inputs_columns": {
        "type": "d3m.metadata.hyperparams.Set",
        "default": [],
        "structural_type": "typing.Sequence[int]",
        "semantic_types": [
          "https://metadata.datadrivendiscovery.org/types/ControlParameter"
        ],
        "description": "A set of column indices to force primitive to use as training input. If any specified column cannot be parsed, it is skipped.",
        "elements": {
          "type": "d3m.metadata.hyperparams.Hyperparameter",
          "default": -1,
          "structural_type": "int",
          "semantic_types": []
        },
        "is_configuration": false,
        "min_size": 0
      },
      "use_outputs_columns": {
        "type": "d3m.metadata.hyperparams.Set",
        "default": [],
        "structural_type": "typing.Sequence[int]",
        "semantic_types": [
          "https://metadata.datadrivendiscovery.org/types/ControlParameter"
        ],
        "description": "A set of column indices to force primitive to use as training target. If any specified column cannot be parsed, it is skipped.",
        "elements": {
          "type": "d3m.metadata.hyperparams.Hyperparameter",
          "default": -1,
          "structural_type": "int",
          "semantic_types": []
        },
        "is_configuration": false,
        "min_size": 0
      },
      "exclude_inputs_columns": {
        "type": "d3m.metadata.hyperparams.Set",
        "default": [],
        "structural_type": "typing.Sequence[int]",
        "semantic_types": [
          "https://metadata.datadrivendiscovery.org/types/ControlParameter"
        ],
        "description": "A set of column indices to not use as training inputs. Applicable only if \"use_columns\" is not provided.",
        "elements": {
          "type": "d3m.metadata.hyperparams.Hyperparameter",
          "default": -1,
          "structural_type": "int",
          "semantic_types": []
        },
        "is_configuration": false,
        "min_size": 0
      },
      "exclude_outputs_columns": {
        "type": "d3m.metadata.hyperparams.Set",
        "default": [],
        "structural_type": "typing.Sequence[int]",
        "semantic_types": [
          "https://metadata.datadrivendiscovery.org/types/ControlParameter"
        ],
        "description": "A set of column indices to not use as training target. Applicable only if \"use_columns\" is not provided.",
        "elements": {
          "type": "d3m.metadata.hyperparams.Hyperparameter",
          "default": -1,
          "structural_type": "int",
          "semantic_types": []
        },
        "is_configuration": false,
        "min_size": 0
      },
      "return_result": {
        "type": "d3m.metadata.hyperparams.Enumeration",
        "default": "new",
        "structural_type": "str",
        "semantic_types": [
          "https://metadata.datadrivendiscovery.org/types/ControlParameter"
        ],
        "description": "Should parsed columns be appended, should they replace original columns, or should only parsed columns be returned? This hyperparam is ignored if use_semantic_types is set to false.",
        "values": [
          "append",
          "replace",
          "new"
        ]
      },
      "use_semantic_types": {
        "type": "d3m.metadata.hyperparams.UniformBool",
        "default": false,
        "structural_type": "bool",
        "semantic_types": [
          "https://metadata.datadrivendiscovery.org/types/ControlParameter"
        ],
        "description": "Controls whether semantic_types metadata will be used for filtering columns in input dataframe. Setting this to false makes the code ignore return_result and will produce only the output dataframe"
      },
      "add_index_columns": {
        "type": "d3m.metadata.hyperparams.UniformBool",
        "default": false,
        "structural_type": "bool",
        "semantic_types": [
          "https://metadata.datadrivendiscovery.org/types/ControlParameter"
        ],
        "description": "Also include primary index columns if input data has them. Applicable only if \"return_result\" is set to \"new\"."
      },
      "error_on_no_input": {
        "type": "d3m.metadata.hyperparams.UniformBool",
        "default": true,
        "structural_type": "bool",
        "semantic_types": [
          "https://metadata.datadrivendiscovery.org/types/ControlParameter"
        ],
        "description": "Throw an exception if no input column is selected/provided. Defaults to true to behave like sklearn. To prevent pipelines from breaking set this to False."
      },
      "return_semantic_type": {
        "type": "d3m.metadata.hyperparams.Enumeration",
        "default": "https://metadata.datadrivendiscovery.org/types/PredictedTarget",
        "structural_type": "str",
        "semantic_types": [
          "https://metadata.datadrivendiscovery.org/types/ControlParameter"
        ],
        "description": "Decides what semantic type to attach to generated output",
        "values": [
          "https://metadata.datadrivendiscovery.org/types/Attribute",
          "https://metadata.datadrivendiscovery.org/types/ConstructedAttribute",
          "https://metadata.datadrivendiscovery.org/types/PredictedTarget"
        ]
      }
    },
    "arguments": {
      "hyperparams": {
        "type": "sklearn_wrap.SKMLPRegressor.Hyperparams",
        "kind": "RUNTIME"
      },
      "random_seed": {
        "type": "int",
        "kind": "RUNTIME",
        "default": 0
      },
      "docker_containers": {
        "type": "typing.Union[NoneType, typing.Dict[str, d3m.primitive_interfaces.base.DockerContainer]]",
        "kind": "RUNTIME",
        "default": null
      },
      "timeout": {
        "type": "typing.Union[NoneType, float]",
        "kind": "RUNTIME",
        "default": null
      },
      "iterations": {
        "type": "typing.Union[NoneType, int]",
        "kind": "RUNTIME",
        "default": null
      },
      "produce_methods": {
        "type": "typing.Sequence[str]",
        "kind": "RUNTIME"
      },
      "inputs": {
        "type": "d3m.container.pandas.DataFrame",
        "kind": "PIPELINE"
      },
      "outputs": {
        "type": "d3m.container.pandas.DataFrame",
        "kind": "PIPELINE"
      },
      "params": {
        "type": "sklearn_wrap.SKMLPRegressor.Params",
        "kind": "RUNTIME"
      }
    },
    "class_methods": {},
    "instance_methods": {
      "__init__": {
        "kind": "OTHER",
        "arguments": [
          "hyperparams",
          "random_seed",
          "docker_containers"
        ],
        "returns": "NoneType"
      },
      "fit": {
        "kind": "OTHER",
        "arguments": [
          "timeout",
          "iterations"
        ],
        "returns": "d3m.primitive_interfaces.base.CallResult[NoneType]",
        "description": "Fits primitive using inputs and outputs (if any) using currently set training data.\n\nThe returned value should be a ``CallResult`` object with ``value`` set to ``None``.\n\nIf ``fit`` has already been called in the past on different training data,\nthis method fits it **again from scratch** using currently set training data.\n\nOn the other hand, caller can call ``fit`` multiple times on the same training data\nto continue fitting.\n\nIf ``fit`` fully fits using provided training data, there is no point in making further\ncalls to this method with same training data, and in fact further calls can be noops,\nor a primitive can decide to fully refit from scratch.\n\nIn the case fitting can continue with same training data (even if it is maybe not reasonable,\nbecause the internal metric primitive is using looks like fitting will be degrading), if ``fit``\nis called again (without setting training data), the primitive has to continue fitting.\n\nCaller can provide ``timeout`` information to guide the length of the fitting process.\nIdeally, a primitive should adapt its fitting process to try to do the best fitting possible\ninside the time allocated. If this is not possible and the primitive reaches the timeout\nbefore fitting, it should raise a ``TimeoutError`` exception to signal that fitting was\nunsuccessful in the given time. The state of the primitive after the exception should be\nas the method call has never happened and primitive should continue to operate normally.\nThe purpose of ``timeout`` is to give opportunity to a primitive to cleanly manage\nits state instead of interrupting execution from outside. Maintaining stable internal state\nshould have precedence over respecting the ``timeout`` (caller can terminate the misbehaving\nprimitive from outside anyway). If a longer ``timeout`` would produce different fitting,\nthen ``CallResult``'s ``has_finished`` should be set to ``False``.\n\nSome primitives have internal fitting iterations (for example, epochs). For those, caller\ncan provide how many of primitive's internal iterations should a primitive do before returning.\nPrimitives should make iterations as small as reasonable. If ``iterations`` is ``None``,\nthen there is no limit on how many iterations the primitive should do and primitive should\nchoose the best amount of iterations on its own (potentially controlled through\nhyper-parameters). If ``iterations`` is a number, a primitive has to do those number of\niterations (even if not reasonable), if possible. ``timeout`` should still be respected\nand potentially less iterations can be done because of that. Primitives with internal\niterations should make ``CallResult`` contain correct values.\n\nFor primitives which do not have internal iterations, any value of ``iterations``\nmeans that they should fit fully, respecting only ``timeout``.\n\nParameters\n----------\ntimeout:\n    A maximum time this primitive should be fitting during this method call, in seconds.\niterations:\n    How many of internal iterations should the primitive do.\n\nReturns\n-------\nA ``CallResult`` with ``None`` value."
      },
      "fit_multi_produce": {
        "kind": "OTHER",
        "arguments": [
          "produce_methods",
          "inputs",
          "outputs",
          "timeout",
          "iterations"
        ],
        "returns": "d3m.primitive_interfaces.base.MultiCallResult",
        "description": "A method calling ``fit`` and after that multiple produce methods at once.\n\nThis method allows primitive author to implement an optimized version of both fitting\nand producing a primitive on same data.\n\nIf any additional method arguments are added to primitive's ``set_training_data`` method\nor produce method(s), or removed from them, they have to be added to or removed from this\nmethod as well. This method should accept an union of all arguments accepted by primitive's\n``set_training_data`` method and produce method(s) and then use them accordingly when\ncomputing results. Despite accepting all arguments they can be passed as ``None`` by the caller\nwhen they are not needed by any of the produce methods in ``produce_methods`` and ``set_training_data``.\n\nThe default implementation of this method just calls first ``set_training_data`` method,\n``fit`` method, and all produce methods listed in ``produce_methods`` in order and is\npotentially inefficient.\n\nParameters\n----------\nproduce_methods:\n    A list of names of produce methods to call.\ninputs:\n    The inputs given to ``set_training_data`` and all produce methods.\noutputs:\n    The outputs given to ``set_training_data``.\ntimeout:\n    A maximum time this primitive should take to both fit the primitive and produce outputs\n    for all produce methods listed in ``produce_methods`` argument, in seconds.\niterations:\n    How many of internal iterations should the primitive do for both fitting and producing\n    outputs of all produce methods.\n\nReturns\n-------\nA dict of values for each produce method wrapped inside ``MultiCallResult``."
      },
      "get_params": {
        "kind": "OTHER",
        "arguments": [],
        "returns": "sklearn_wrap.SKMLPRegressor.Params",
        "description": "Returns parameters of this primitive.\n\nParameters are all parameters of the primitive which can potentially change during a life-time of\na primitive. Parameters which cannot are passed through constructor.\n\nParameters should include all data which is necessary to create a new instance of this primitive\nbehaving exactly the same as this instance, when the new instance is created by passing the same\nparameters to the class constructor and calling ``set_params``.\n\nNo other arguments to the method are allowed (except for private arguments).\n\nReturns\n-------\nAn instance of parameters."
      },
      "multi_produce": {
        "kind": "OTHER",
        "arguments": [
          "produce_methods",
          "inputs",
          "timeout",
          "iterations"
        ],
        "returns": "d3m.primitive_interfaces.base.MultiCallResult",
        "description": "A method calling multiple produce methods at once.\n\nWhen a primitive has multiple produce methods it is common that they might compute the\nsame internal results for same inputs but return different representations of those results.\nIf caller is interested in multiple of those representations, calling multiple produce\nmethods might lead to recomputing same internal results multiple times. To address this,\nthis method allows primitive author to implement an optimized version which computes\ninternal results only once for multiple calls of produce methods, but return those different\nrepresentations.\n\nIf any additional method arguments are added to primitive's produce method(s), they have\nto be added to this method as well. This method should accept an union of all arguments\naccepted by primitive's produce method(s) and then use them accordingly when computing\nresults. Despite accepting all arguments they can be passed as ``None`` by the caller\nwhen they are not needed by any of the produce methods in ``produce_methods``.\n\nThe default implementation of this method just calls all produce methods listed in\n``produce_methods`` in order and is potentially inefficient.\n\nIf primitive should have been fitted before calling this method, but it has not been,\nprimitive should raise a ``PrimitiveNotFittedError`` exception.\n\nParameters\n----------\nproduce_methods:\n    A list of names of produce methods to call.\ninputs:\n    The inputs given to all produce methods.\ntimeout:\n    A maximum time this primitive should take to produce outputs for all produce methods\n    listed in ``produce_methods`` argument, in seconds.\niterations:\n    How many of internal iterations should the primitive do.\n\nReturns\n-------\nA dict of values for each produce method wrapped inside ``MultiCallResult``."
      },
      "produce": {
        "kind": "PRODUCE",
        "arguments": [
          "inputs",
          "timeout",
          "iterations"
        ],
        "returns": "d3m.primitive_interfaces.base.CallResult[d3m.container.pandas.DataFrame]",
        "singleton": false,
        "inputs_across_samples": [],
        "description": "Produce primitive's best choice of the output for each of the inputs.\n\nThe output value should be wrapped inside ``CallResult`` object before returning.\n\nIn many cases producing an output is a quick operation in comparison with ``fit``, but not\nall cases are like that. For example, a primitive can start a potentially long optimization\nprocess to compute outputs. ``timeout`` and ``iterations`` can serve as a way for a caller\nto guide the length of this process.\n\nIdeally, a primitive should adapt its call to try to produce the best outputs possible\ninside the time allocated. If this is not possible and the primitive reaches the timeout\nbefore producing outputs, it should raise a ``TimeoutError`` exception to signal that the\ncall was unsuccessful in the given time. The state of the primitive after the exception\nshould be as the method call has never happened and primitive should continue to operate\nnormally. The purpose of ``timeout`` is to give opportunity to a primitive to cleanly\nmanage its state instead of interrupting execution from outside. Maintaining stable internal\nstate should have precedence over respecting the ``timeout`` (caller can terminate the\nmisbehaving primitive from outside anyway). If a longer ``timeout`` would produce\ndifferent outputs, then ``CallResult``'s ``has_finished`` should be set to ``False``.\n\nSome primitives have internal iterations (for example, optimization iterations).\nFor those, caller can provide how many of primitive's internal iterations\nshould a primitive do before returning outputs. Primitives should make iterations as\nsmall as reasonable. If ``iterations`` is ``None``, then there is no limit on\nhow many iterations the primitive should do and primitive should choose the best amount\nof iterations on its own (potentially controlled through hyper-parameters).\nIf ``iterations`` is a number, a primitive has to do those number of iterations,\nif possible. ``timeout`` should still be respected and potentially less iterations\ncan be done because of that. Primitives with internal iterations should make\n``CallResult`` contain correct values.\n\nFor primitives which do not have internal iterations, any value of ``iterations``\nmeans that they should run fully, respecting only ``timeout``.\n\nIf primitive should have been fitted before calling this method, but it has not been,\nprimitive should raise a ``PrimitiveNotFittedError`` exception.\n\nParameters\n----------\ninputs:\n    The inputs of shape [num_inputs, ...].\ntimeout:\n    A maximum time this primitive should take to produce outputs during this method call, in seconds.\niterations:\n    How many of internal iterations should the primitive do.\n\nReturns\n-------\nThe outputs of shape [num_inputs, ...] wrapped inside ``CallResult``."
      },
      "set_params": {
        "kind": "OTHER",
        "arguments": [
          "params"
        ],
        "returns": "NoneType",
        "description": "Sets parameters of this primitive.\n\nParameters are all parameters of the primitive which can potentially change during a life-time of\na primitive. Parameters which cannot are passed through constructor.\n\nNo other arguments to the method are allowed (except for private arguments).\n\nParameters\n----------\nparams:\n    An instance of parameters."
      },
      "set_training_data": {
        "kind": "OTHER",
        "arguments": [
          "inputs",
          "outputs"
        ],
        "returns": "NoneType",
        "description": "Sets current training data of this primitive.\n\nThis marks training data as changed even if new training data is the same as\nprevious training data.\n\nStandard sublasses in this package do not adhere to the Liskov substitution principle when\ninheriting this method because they do not necessary accept all arguments found in the base\nclass. This means that one has to inspect which arguments are accepted at runtime, or in\nother words, one has to inspect which exactly subclass a primitive implements, if\nyou are accepting a wider range of primitives. This relaxation is allowed only for\nstandard subclasses found in this package. Primitives themselves should not break\nthe Liskov substitution principle but should inherit from a suitable base class.\n\nParameters\n----------\ninputs:\n    The inputs.\noutputs:\n    The outputs."
      }
    },
    "class_attributes": {
      "logger": "logging.Logger",
      "metadata": "d3m.metadata.base.PrimitiveMetadata"
    },
    "instance_attributes": {
      "hyperparams": "d3m.metadata.hyperparams.Hyperparams",
      "random_seed": "int",
      "docker_containers": "typing.Dict[str, d3m.primitive_interfaces.base.DockerContainer]",
      "volumes": "typing.Dict[str, str]",
      "temporary_directory": "typing.Union[NoneType, str]"
    },
    "params": {
      "loss_": "typing.Union[NoneType, float]",
      "coefs_": "typing.Union[NoneType, typing.Sequence[typing.Any]]",
      "intercepts_": "typing.Union[NoneType, typing.Sequence[typing.Any]]",
      "n_iter_": "typing.Union[NoneType, int]",
      "n_layers_": "typing.Union[NoneType, int]",
      "n_outputs_": "typing.Union[NoneType, int]",
      "out_activation_": "typing.Union[NoneType, str]",
      "_best_coefs": "typing.Union[NoneType, typing.Sequence[typing.Any]]",
      "_best_intercepts": "typing.Union[NoneType, typing.Sequence[typing.Any]]",
      "_no_improvement_count": "typing.Union[NoneType, int]",
      "_random_state": "typing.Union[NoneType, numpy.random.mtrand.RandomState]",
      "best_validation_score_": "typing.Union[NoneType, numpy.float64]",
      "loss_curve_": "typing.Union[NoneType, typing.Sequence[typing.Any]]",
      "t_": "typing.Union[NoneType, int]",
      "_optimizer": "typing.Union[NoneType, sklearn.neural_network._stochastic_optimizers.AdamOptimizer]",
      "validation_scores_": "typing.Union[NoneType, typing.Sequence[typing.Any]]",
      "input_column_names": "typing.Union[NoneType, pandas.core.indexes.base.Index]",
      "target_names_": "typing.Union[NoneType, typing.Sequence[typing.Any]]",
      "training_indices_": "typing.Union[NoneType, typing.Sequence[int]]",
      "target_column_indices_": "typing.Union[NoneType, typing.Sequence[int]]",
      "target_columns_metadata_": "typing.Union[NoneType, typing.List[collections.OrderedDict]]"
    }
  },
  "structural_type": "sklearn_wrap.SKMLPRegressor.SKMLPRegressor",
  "description": "Primitive wrapping for sklearn MLPRegressor\n`sklearn documentation <https://scikit-learn.org/stable/modules/generated/sklearn.neural_network.MLPRegressor.html>`_\n\nAttributes\n----------\nmetadata:\n    Primitive's metadata. Available as a class attribute.\nlogger:\n    Primitive's logger. Available as a class attribute.\nhyperparams:\n    Hyperparams passed to the constructor.\nrandom_seed:\n    Random seed passed to the constructor.\ndocker_containers:\n    A dict mapping Docker image keys from primitive's metadata to (named) tuples containing\n    container's address under which the container is accessible by the primitive, and a\n    dict mapping exposed ports to ports on that address.\nvolumes:\n    A dict mapping volume keys from primitive's metadata to file and directory paths\n    where downloaded and extracted files are available to the primitive.\ntemporary_directory:\n    An absolute path to a temporary directory a primitive can use to store any files\n    for the duration of the current pipeline run phase. Directory is automatically\n    cleaned up after the current pipeline run phase finishes.",
  "digest": "4e4f7b2e3f25aedcbe3b8aa7e4b4b1829999f1ba58bd6b7354588a876c0ff85e"
}