{
    "id": "830234af-1cb0-4977-adee-134fcb045c86",
    "schema": "https://metadata.datadrivendiscovery.org/schemas/v0/pipeline.json",
    "created": "2020-11-17T18:54:06.114640Z",
    "inputs": [
        {
            "name": "inputs"
        }
    ],
    "outputs": [
        {
            "data": "steps.1.produce",
            "name": "output"
        }
    ],
    "steps": [
        {
            "type": "PRIMITIVE",
            "primitive": {
                "id": "4acc81e5-4b9c-443e-a72a-18dd9a7dcc3b",
                "version": "0.5.1",
                "python_path": "d3m.primitives.data_transformation.load_edgelist.DistilEdgeListLoader",
                "name": "Load edgelist into a parseable object"
            },
            "arguments": {
                "inputs": {
                    "type": "CONTAINER",
                    "data": "inputs.0"
                }
            },
            "outputs": [
                {
                    "id": "produce"
                },
                {
                    "id": "produce_target"
                }
            ]
        },
        {
            "type": "PRIMITIVE",
            "primitive": {
                "id": "0130828c-1ac0-47a9-a167-f05bae5a3146",
                "version": "0.5.1",
                "python_path": "d3m.primitives.vertex_nomination.seeded_graph_matching.DistilVertexNomination",
                "name": "VertexNomination"
            },
            "arguments": {
                "inputs": {
                    "type": "CONTAINER",
                    "data": "steps.0.produce"
                },
                "outputs": {
                    "type": "CONTAINER",
                    "data": "steps.0.produce_target"
                }
            },
            "outputs": [
                {
                    "id": "produce"
                }
            ],
            "hyperparams": {
                "metric": {
                    "type": "VALUE",
                    "data": "accuracy"
                }
            }
        }
    ],
    "digest": "c280a4bfb6ac88aac008dd1b67f33925523e20998c97c9f05f6c300a23cbee07"
}
