{
   "id":"d1f347f8-84d0-459f-a776-e145f0db994b",
   "schema":"https://metadata.datadrivendiscovery.org/schemas/v0/pipeline.json",
   "created":"2019-05-02T20:51:10.379664Z",
   "context":"TESTING",
   "inputs":[
      {
         "name":"inputs"
      }
   ],
   "outputs":[
      {
         "data":"steps.5.produce",
         "name":"output predictions"
      }
   ],
   "steps":[
      {
         "type":"PRIMITIVE",
         "primitive":{
            "id":"4b42ce1e-9b98-4a25-b68e-fad13311eb65",
            "version":"0.3.0",
            "python_path":"d3m.primitives.data_transformation.dataset_to_dataframe.Common",
            "name":"Extract a DataFrame from a Dataset",
            "digest":"6ee6b94c42491892321d83c7a88a6a93b173c532d9783eafd520c7fd4bd03c55"
         },
         "arguments":{
            "inputs":{
               "type":"CONTAINER",
               "data":"inputs.0"
            }
         },
         "outputs":[
            {
               "id":"produce"
            }
         ]
      },
      {
         "type":"PRIMITIVE",
         "primitive":{
            "id":"ef6f3887-b253-4bfd-8b35-ada449efad0c",
            "version":"3.1.1",
            "python_path":"d3m.primitives.feature_selection.rffeatures.Rffeatures",
            "name":"RF Features",
            "digest":"c857d55270187a4c9c14368670bc014f0e5be52c17148800eabd0dfd22d68694"
         },
         "arguments":{
            "inputs":{
               "type":"CONTAINER",
               "data":"steps.0.produce"
            }
         },
         "outputs":[
            {
               "id":"produce"
            }
         ]
      },
      {
         "type":"PRIMITIVE",
         "primitive":{
            "id":"d510cb7a-1782-4f51-b44c-58f0236e47c7",
            "version":"0.5.0",
            "python_path":"d3m.primitives.data_transformation.column_parser.DataFrameCommon",
            "name":"Parses strings into their types",
            "digest":"edad77a01c547b5142cb3d58cbd526982cbea5aeb227395bee7bcebe9f80687c"
         },
         "arguments":{
            "inputs":{
               "type":"CONTAINER",
               "data":"steps.1.produce"
            }
         },
         "outputs":[
            {
               "id":"produce"
            }
         ]
      },
      {
         "type":"PRIMITIVE",
         "primitive":{
            "id":"d016df89-de62-3c53-87ed-c06bb6a23cde",
            "version":"2019.4.4",
            "python_path":"d3m.primitives.data_cleaning.imputer.SKlearn",
            "name":"sklearn.impute.SimpleImputer",
            "digest":"8c36c71cc0018d0566008dd256748672a4d686bf00174f2c17ae063238be7b29"
         },
         "arguments":{
            "inputs":{
               "type":"CONTAINER",
               "data":"steps.2.produce"
            }
         },
         "outputs":[
            {
               "id":"produce"
            }
         ],
         "hyperparams":{
            "return_result":{
               "type":"VALUE",
               "data":"replace"
            },
            "use_semantic_types":{
               "type":"VALUE",
               "data":true
            }
         }
      },
      {
         "type":"PRIMITIVE",
         "primitive":{
            "id":"1dd82833-5692-39cb-84fb-2455683075f3",
            "version":"2019.4.4",
            "python_path":"d3m.primitives.classification.random_forest.SKlearn",
            "name":"sklearn.ensemble.forest.RandomForestClassifier",
            "digest":"b1c373d38eeffe7ca7e2fe12b7cae22b2518b9bef3cbf4c7b9167af3a972bee3"
         },
         "arguments":{
            "inputs":{
               "type":"CONTAINER",
               "data":"steps.3.produce"
            },
            "outputs":{
               "type":"CONTAINER",
               "data":"steps.3.produce"
            }
         },
         "outputs":[
            {
               "id":"produce"
            }
         ],
         "hyperparams":{
            "add_index_columns":{
               "type":"VALUE",
               "data":true
            },
            "use_semantic_types":{
               "type":"VALUE",
               "data":true
            }
         }
      },
      {
         "type":"PRIMITIVE",
         "primitive":{
            "id":"8d38b340-f83f-4877-baaa-162f8e551736",
            "version":"0.3.0",
            "python_path":"d3m.primitives.data_transformation.construct_predictions.DataFrameCommon",
            "name":"Construct pipeline predictions output",
            "digest":"68a8d025a517e89a358c7a8a837c196b446cbbf516a81504fd07cb0ec7c9a05a"
         },
         "arguments":{
            "inputs":{
               "type":"CONTAINER",
               "data":"steps.4.produce"
            },
            "reference":{
               "type":"CONTAINER",
               "data":"steps.0.produce"
            }
         },
         "outputs":[
            {
               "id":"produce"
            }
         ]
      }
   ],
   "digest":"1d6026bac7c0c2da00314b7ababf21ea285e4b8db3f7f8c80719caf8f48c9df1"
}
