{
    "id": "76319ac4-b1ea-4103-960a-8b57b41c4c88",
    "schema": "https://metadata.datadrivendiscovery.org/schemas/v0/pipeline.json",
    "created": "2020-06-10T21:43:30.009554Z",
    "inputs": [
        {
            "name": "inputs"
        }
    ],
    "outputs": [
        {
            "data": "steps.3.produce",
            "name": "Predictions"
        }
    ],
    "steps": [
        {
            "type": "PRIMITIVE",
            "primitive": {
                "id": "cb192a83-63e2-4075-bab9-e6ba1a8365b6",
                "version": "0.1.0",
                "python_path": "d3m.primitives.data_transformation.load_graphs.JHU",
                "name": "Extract a list of Graphs from a Dataset",
                "digest": "7987f3f11f9d467d68cc8fc82abd6475bd5beee1c41bb6e3d5f41be1cafc8076"
            },
            "arguments": {
                "inputs": {
                    "type": "CONTAINER",
                    "data": "inputs.0"
                }
            },
            "outputs": [
                {
                    "id": "produce"
                }
            ]
        },
        {
            "type": "PRIMITIVE",
            "primitive": {
                "id": "32fec24f-6861-4a4c-88f3-d4ec2bc1b486",
                "version": "0.1.0",
                "python_path": "d3m.primitives.data_preprocessing.largest_connected_component.JHU",
                "name": "jhu.lcc",
                "digest": "cc4db40aedb722a772c75295cc5399b8c1d6b33429bebf3dd6c49c36f44ff503"
            },
            "arguments": {
                "inputs": {
                    "type": "CONTAINER",
                    "data": "steps.0.produce"
                }
            },
            "outputs": [
                {
                    "id": "produce"
                }
            ]
        },
        {
            "type": "PRIMITIVE",
            "primitive": {
                "id": "8fa6178b-84f7-37d8-87e8-4d3a44c86569",
                "version": "0.1.0",
                "python_path": "d3m.primitives.data_transformation.laplacian_spectral_embedding.JHU",
                "name": "jhu.lse",
                "digest": "6fda22c23b613f6752a17d82946a23a1ab5b7f3f4fa8884efbfc0430c3ee2d46"
            },
            "arguments": {
                "inputs": {
                    "type": "CONTAINER",
                    "data": "steps.1.produce"
                }
            },
            "outputs": [
                {
                    "id": "produce"
                }
            ],
            "hyperparams": {
                "max_dimension": {
                    "type": "VALUE",
                    "data": 5
                },
                "use_attributes": {
                    "type": "VALUE",
                    "data": true
                }
            }
        },
        {
            "type": "PRIMITIVE",
            "primitive": {
                "id": "c9d5da5d-0520-468e-92df-bd3a85bb4fac",
                "version": "0.1.0",
                "python_path": "d3m.primitives.classification.gaussian_classification.JHU",
                "name": "jhu.gclass",
                "digest": "49e4f2acfffd26fcdd83b0e48d403354a018cbb16533706117daecbf3edf2046"
            },
            "arguments": {
                "inputs": {
                    "type": "CONTAINER",
                    "data": "steps.2.produce"
                }
            },
            "outputs": [
                {
                    "id": "produce"
                }
            ]
        }
    ],
    "digest": "3e60cd3e208b8567d35ddc7adab3b6cff835b648f9f12ed0996d9f18be87d635"
}