{
  "created": "2020-11-18T04:03:24.970488Z",
  "digest": "060a535b002d2f8bb36bbae4228b1cccc12ceea5618fdbbe1190e5bd2500a542",
  "id": "bcdb1223-b400-4668-a976-565da1f70d50",
  "inputs": [
    {
      "name": "inputs"
    }
  ],
  "outputs": [
    {
      "data": "steps.7.produce",
      "name": "output predictions"
    }
  ],
  "schema": "https://metadata.datadrivendiscovery.org/schemas/v0/pipeline.json",
  "steps": [
    {
      "arguments": {
        "inputs": {
          "data": "inputs.0",
          "type": "CONTAINER"
        }
      },
      "outputs": [
        {
          "id": "produce"
        }
      ],
      "primitive": {
        "digest": "eb0e8a70ae9778cc0e7bb8347eb40396577b8085bfe10b0eba26c6c5ce74be4f",
        "id": "4b42ce1e-9b98-4a25-b68e-fad13311eb65",
        "name": "Extract a DataFrame from a Dataset",
        "python_path": "d3m.primitives.data_transformation.dataset_to_dataframe.Common",
        "version": "0.3.0"
      },
      "type": "PRIMITIVE"
    },
    {
      "arguments": {
        "inputs": {
          "data": "steps.0.produce",
          "type": "CONTAINER"
        }
      },
      "hyperparams": {
        "categorical_max_absolute_distinct_values": {
          "data": {
            "case": "unlimited",
            "value": null
          },
          "type": "VALUE"
        },
        "categorical_max_ratio_distinct_values": {
          "data": 1,
          "type": "VALUE"
        }
      },
      "outputs": [
        {
          "id": "produce"
        }
      ],
      "primitive": {
        "digest": "f010a64212bf824e9a9e0fcf1f13061c2745b2c53bc7c9b9a3a60eff8913de2e",
        "id": "e193afa1-b45e-4d29-918f-5bb1fa3b88a7",
        "name": "Determine missing semantic types for columns automatically",
        "python_path": "d3m.primitives.schema_discovery.profiler.Common",
        "version": "0.2.0"
      },
      "type": "PRIMITIVE"
    },
    {
      "arguments": {
        "inputs": {
          "data": "steps.1.produce",
          "type": "CONTAINER"
        }
      },
      "outputs": [
        {
          "id": "produce"
        }
      ],
      "primitive": {
        "digest": "7d35a21b7da54140b6135716cb90512e2bc4d99e7046475bbd4a65dc29d1bf4d",
        "id": "d510cb7a-1782-4f51-b44c-58f0236e47c7",
        "name": "Parses strings into their types",
        "python_path": "d3m.primitives.data_transformation.column_parser.Common",
        "version": "0.6.0"
      },
      "type": "PRIMITIVE"
    },
    {
      "arguments": {
        "inputs": {
          "data": "steps.2.produce",
          "type": "CONTAINER"
        }
      },
      "hyperparams": {
        "return_result": {
          "data": "replace",
          "type": "VALUE"
        },
        "use_semantic_types": {
          "data": true,
          "type": "VALUE"
        }
      },
      "outputs": [
        {
          "id": "produce"
        }
      ],
      "primitive": {
        "digest": "43fb48a183933b408dc50035882c2259c5e99aa0c6c409198f6b312cec998a16",
        "id": "d016df89-de62-3c53-87ed-c06bb6a23cde",
        "name": "sklearn.impute.SimpleImputer",
        "python_path": "d3m.primitives.data_cleaning.imputer.SKlearn",
        "version": "2020.11.16"
      },
      "type": "PRIMITIVE"
    },
    {
      "arguments": {
        "inputs": {
          "data": "steps.3.produce",
          "type": "CONTAINER"
        }
      },
      "hyperparams": {
        "sample_size": {
          "data": 0.7,
          "type": "VALUE"
        }
      },
      "outputs": [
        {
          "id": "produce"
        }
      ],
      "primitive": {
        "digest": "b533202d96cf57cdce6bd3f69f1d0a4d14abe8c16811340add7c4873e672f4de",
        "id": "adc6e2e6-a477-41cf-8ce2-5dc1b475246e",
        "name": "DataFrame Sampling",
        "python_path": "d3m.primitives.data_transformation.dataframe_sampling.Common",
        "version": "0.1.0"
      },
      "type": "PRIMITIVE"
    },
    {
      "arguments": {
        "inputs": {
          "data": "steps.4.produce",
          "type": "CONTAINER"
        }
      },
      "hyperparams": {
        "dataframe_to_extract": {
          "data": 0,
          "type": "VALUE"
        }
      },
      "outputs": [
        {
          "id": "produce"
        }
      ],
      "primitive": {
        "digest": "c75316f2ca71adfe5676d82f9c2dff7d870b30d7c644635d9f0937ad7f5b19d6",
        "id": "9fe84601-a3d7-4881-86b2-44fecd42b296",
        "name": "Select dataframe from list of dataframes",
        "python_path": "d3m.primitives.data_transformation.dataframe_list_extractor.Common",
        "version": "0.1.0"
      },
      "type": "PRIMITIVE"
    },
    {
      "arguments": {
        "inputs": {
          "data": "steps.5.produce",
          "type": "CONTAINER"
        },
        "outputs": {
          "data": "steps.5.produce",
          "type": "CONTAINER"
        }
      },
      "hyperparams": {
        "use_semantic_types": {
          "data": true,
          "type": "VALUE"
        }
      },
      "outputs": [
        {
          "id": "produce"
        }
      ],
      "primitive": {
        "digest": "0a009a2acb429be799e042cb884a65c6fa3d6ba3f56437f0ed6ec3613ecd72a9",
        "id": "1dd82833-5692-39cb-84fb-2455683075f3",
        "name": "sklearn.ensemble.forest.RandomForestClassifier",
        "python_path": "d3m.primitives.classification.random_forest.SKlearn",
        "version": "2020.11.16"
      },
      "type": "PRIMITIVE"
    },
    {
      "arguments": {
        "inputs": {
          "data": "steps.6.produce",
          "type": "CONTAINER"
        },
        "reference": {
          "data": "steps.1.produce",
          "type": "CONTAINER"
        }
      },
      "outputs": [
        {
          "id": "produce"
        }
      ],
      "primitive": {
        "digest": "f88b97c4e57c5ac39d40b44d1a841770f5e1b0697ab223f2a149847ec882187b",
        "id": "8d38b340-f83f-4877-baaa-162f8e551736",
        "name": "Construct pipeline predictions output",
        "python_path": "d3m.primitives.data_transformation.construct_predictions.Common",
        "version": "0.3.0"
      },
      "type": "PRIMITIVE"
    }
  ]
}