{
    "id": "2e0e1401-c273-47ad-a0ce-e488a6d93bd6",
    "schema": "https://metadata.datadrivendiscovery.org/schemas/v0/pipeline.json",
    "created": "2020-06-09T00:28:35.615701Z",
    "inputs": [
        {
            "name": "inputs"
        }
    ],
    "outputs": [
        {
            "data": "steps.4.produce",
            "name": "output predictions"
        }
    ],
    "steps": [
        {
            "type": "PRIMITIVE",
            "primitive": {
                "id": "f31f8c1f-d1c5-43e5-a4b2-2ae4a761ef2e",
                "version": "0.2.0",
                "python_path": "d3m.primitives.data_transformation.denormalize.Common",
                "name": "Denormalize datasets",
                "digest": "c4177842020cea66c8904a5567098a7040c98a8270a1297abb57353ca54f5b37"
            },
            "arguments": {
                "inputs": {
                    "type": "CONTAINER",
                    "data": "inputs.0"
                }
            },
            "outputs": [
                {
                    "id": "produce"
                }
            ]
        },
        {
            "type": "PRIMITIVE",
            "primitive": {
                "id": "4b42ce1e-9b98-4a25-b68e-fad13311eb65",
                "version": "0.3.0",
                "python_path": "d3m.primitives.data_transformation.dataset_to_dataframe.Common",
                "name": "Extract a DataFrame from a Dataset",
                "digest": "8457eeb19b44f5b26a5fb721a51087d618962a35f0aff17f4ad25d341a2170f2"
            },
            "arguments": {
                "inputs": {
                    "type": "CONTAINER",
                    "data": "steps.0.produce"
                }
            },
            "outputs": [
                {
                    "id": "produce"
                }
            ]
        },
        {
            "type": "PRIMITIVE",
            "primitive": {
                "id": "8f2e51e8-da59-456d-ae29-53912b2b9f3d",
                "version": "0.2.0",
                "python_path": "d3m.primitives.data_preprocessing.image_reader.Common",
                "name": "Columns image reader",
                "digest": "b503490b438ee6c17812159ebc6638086b4236e3c68e9f9321372bcc8c7d5f09"
            },
            "arguments": {
                "inputs": {
                    "type": "CONTAINER",
                    "data": "steps.1.produce"
                }
            },
            "outputs": [
                {
                    "id": "produce"
                }
            ]
        },
        {
            "type": "PRIMITIVE",
            "primitive": {
                "id": "11ca2c30-576d-40cf-ab65-24e6c114a160",
                "version": "0.1.0",
                "python_path": "d3m.primitives.classification.multilayer_perceptron.UBC",
                "name": "Neural Network Classifier",
                "digest": "d5d438a3d490d5959a2cd3c186e9e39d2a17dc8d20b391da860050decbef1953"
            },
            "arguments": {
                "inputs": {
                    "type": "CONTAINER",
                    "data": "steps.2.produce"
                },
                "outputs": {
                    "type": "CONTAINER",
                    "data": "steps.1.produce"
                }
            },
            "outputs": [
                {
                    "id": "produce"
                }
            ],
            "hyperparams": {
                "input_dim": {
                    "type": "VALUE",
                    "data": 256
                },
                "output_dim": {
                    "type": "VALUE",
                    "data": 10
                },
                "depth": {
                    "type": "VALUE",
                    "data": 2
                },
                "width": {
                    "type": "VALUE",
                    "data": 64
                },
                "use_batch_norm": {
                    "type": "VALUE",
                    "data": true
                },
                "activation_type": {
                    "type": "VALUE",
                    "data": "leaky_relu"
                },
                "dataset_type": {
                    "type": "VALUE",
                    "data": "dataset_1"
                },
                "num_iterations": {
                    "type": "VALUE",
                    "data": 500
                }
            }
        },
        {
            "type": "PRIMITIVE",
            "primitive": {
                "id": "8d38b340-f83f-4877-baaa-162f8e551736",
                "version": "0.3.0",
                "python_path": "d3m.primitives.data_transformation.construct_predictions.Common",
                "name": "Construct pipeline predictions output",
                "digest": "9d75def19d2f401d3352d2d4b924269ddfca67d7bf998dc6bdd246d990ada0f4"
            },
            "arguments": {
                "inputs": {
                    "type": "CONTAINER",
                    "data": "steps.3.produce"
                },
                "reference": {
                    "type": "CONTAINER",
                    "data": "steps.1.produce"
                }
            },
            "outputs": [
                {
                    "id": "produce"
                }
            ]
        }
    ],
    "digest": "e07473b58c176943e5fd754ded9f9abe9f79dbc332b45c6707d7fda0f095c23d"
}